xof 0302txt 0064
template Header {
 <3D82AB43-62DA-11cf-AB39-0020AF71E433>
 WORD major;
 WORD minor;
 DWORD flags;
}

template Vector {
 <3D82AB5E-62DA-11cf-AB39-0020AF71E433>
 FLOAT x;
 FLOAT y;
 FLOAT z;
}

template Coords2d {
 <F6F23F44-7686-11cf-8F52-0040333594A3>
 FLOAT u;
 FLOAT v;
}

template Matrix4x4 {
 <F6F23F45-7686-11cf-8F52-0040333594A3>
 array FLOAT matrix[16];
}

template ColorRGBA {
 <35FF44E0-6C7C-11cf-8F52-0040333594A3>
 FLOAT red;
 FLOAT green;
 FLOAT blue;
 FLOAT alpha;
}

template ColorRGB {
 <D3E16E81-7835-11cf-8F52-0040333594A3>
 FLOAT red;
 FLOAT green;
 FLOAT blue;
}

template IndexedColor {
 <1630B820-7842-11cf-8F52-0040333594A3>
 DWORD index;
 ColorRGBA indexColor;
}

template Boolean {
 <4885AE61-78E8-11cf-8F52-0040333594A3>
 WORD truefalse;
}

template Boolean2d {
 <4885AE63-78E8-11cf-8F52-0040333594A3>
 Boolean u;
 Boolean v;
}

template MaterialWrap {
 <4885AE60-78E8-11cf-8F52-0040333594A3>
 Boolean u;
 Boolean v;
}

template TextureFilename {
 <A42790E1-7810-11cf-8F52-0040333594A3>
 STRING filename;
}

template Material {
 <3D82AB4D-62DA-11cf-AB39-0020AF71E433>
 ColorRGBA faceColor;
 FLOAT power;
 ColorRGB specularColor;
 ColorRGB emissiveColor;
 [...]
}

template MeshFace {
 <3D82AB5F-62DA-11cf-AB39-0020AF71E433>
 DWORD nFaceVertexIndices;
 array DWORD faceVertexIndices[nFaceVertexIndices];
}

template MeshFaceWraps {
 <4885AE62-78E8-11cf-8F52-0040333594A3>
 DWORD nFaceWrapValues;
 Boolean2d faceWrapValues;
}

template MeshTextureCoords {
 <F6F23F40-7686-11cf-8F52-0040333594A3>
 DWORD nTextureCoords;
 array Coords2d textureCoords[nTextureCoords];
}

template MeshMaterialList {
 <F6F23F42-7686-11cf-8F52-0040333594A3>
 DWORD nMaterials;
 DWORD nFaceIndexes;
 array DWORD faceIndexes[nFaceIndexes];
 [Material]
}

template MeshNormals {
 <F6F23F43-7686-11cf-8F52-0040333594A3>
 DWORD nNormals;
 array Vector normals[nNormals];
 DWORD nFaceNormals;
 array MeshFace faceNormals[nFaceNormals];
}

template MeshVertexColors {
 <1630B821-7842-11cf-8F52-0040333594A3>
 DWORD nVertexColors;
 array IndexedColor vertexColors[nVertexColors];
}

template Mesh {
 <3D82AB44-62DA-11cf-AB39-0020AF71E433>
 DWORD nVertices;
 array Vector vertices[nVertices];
 DWORD nFaces;
 array MeshFace faces[nFaces];
 [...]
}

Header{
1;
0;
1;
}

Mesh {
 289;
 78.84800;4.31157;15.58755;,
 57.45777;0.00000;15.58755;,
 57.45777;0.00000;27.42044;,
 78.84800;0.00000;27.42044;,
 37.88800;0.00000;15.58755;,
 37.88800;3.74267;27.42044;,
 -76.79999;-3.11391;15.58755;,
 -76.79999;0.00000;27.42044;,
 -60.87111;0.00000;27.42044;,
 -60.87111;0.00000;15.58755;,
 -41.30133;0.00000;27.42044;,
 -41.30133;2.54501;15.58755;,
 -3.07199;1.79649;15.58755;,
 -19.91111;0.00000;15.58755;,
 -19.91111;-2.24561;27.42044;,
 -3.07199;0.00000;27.42044;,
 -90.45332;0.00000;15.58755;,
 -90.45332;0.00000;27.42044;,
 -109.56799;0.00000;15.58755;,
 -109.56799;5.74876;27.42044;,
 17.63556;0.00000;27.42044;,
 17.63556;0.00000;15.58755;,
 97.84888;5.03017;27.42044;,
 97.84888;0.00000;15.58755;,
 114.93145;0.00000;27.42044;,
 114.87014;0.00000;15.58755;,
 78.84799;0.00000;-18.94099;,
 78.84800;-1.79649;-29.01333;,
 57.45777;3.74268;-29.01333;,
 57.45777;-1.64678;-19.10263;,
 57.45777;0.00000;-4.43733;,
 78.84799;6.43739;-4.43733;,
 37.88800;0.00000;-29.01333;,
 37.88800;-2.54501;-19.25051;,
 37.88800;0.00000;-4.43733;,
 -76.79999;-2.39532;-20.11717;,
 -76.79999;0.00000;-4.43733;,
 -60.87111;2.39530;-4.43733;,
 -60.87111;0.00000;-19.99680;,
 -60.87111;-1.79648;-29.01333;,
 -76.79999;0.00000;-29.01333;,
 -41.30133;0.00000;-4.43733;,
 -41.30133;2.09589;-19.84892;,
 -41.30133;0.00000;-29.01333;,
 -3.07199;0.00000;-19.56003;,
 -3.07199;0.00000;-29.01333;,
 -19.91111;1.49708;-29.01333;,
 -19.91111;0.00000;-19.68728;,
 -19.91111;-2.69474;-4.43733;,
 -3.07199;0.00000;-4.43733;,
 -90.45332;0.00000;-29.01333;,
 -90.45332;0.00000;-20.22034;,
 -90.45332;0.00000;-4.43733;,
 -109.56799;-2.39532;-29.01333;,
 -109.56799;0.00000;-20.36479;,
 -109.56798;5.23974;-4.43733;,
 17.63556;3.89239;-4.43733;,
 17.63556;0.00000;-19.40355;,
 17.63556;2.24561;-29.01333;,
 97.84888;0.00000;-4.43733;,
 97.84888;0.00000;-18.79741;,
 97.84888;0.00000;-29.01333;,
 114.76640;0.00000;-4.43733;,
 114.69264;0.00000;-18.67012;,
 114.63904;3.14385;-29.01333;,
 78.84799;0.00000;-38.67641;,
 78.84799;0.00000;-50.32736;,
 57.45777;0.00000;-50.32736;,
 57.45777;0.00000;-38.79888;,
 37.88800;0.00000;-50.32736;,
 37.88800;0.00000;-38.91091;,
 -76.79999;0.00000;-39.56752;,
 -60.87111;0.00000;-39.47632;,
 -60.87111;0.00000;-50.32736;,
 -76.79999;0.00000;-50.32736;,
 -41.30133;-1.64679;-39.36428;,
 -41.30133;0.00000;-50.32736;,
 -3.07199;0.00000;-39.14542;,
 -3.07199;0.00000;-50.32736;,
 -19.91111;0.00000;-50.32736;,
 -19.91111;0.00000;-39.24183;,
 -90.45332;0.00000;-50.32736;,
 -90.45332;0.00000;-39.64568;,
 -109.56798;0.00000;-50.32736;,
 -109.56799;0.00000;-39.75513;,
 17.63556;0.00000;-39.02686;,
 17.63556;0.00000;-50.32736;,
 97.84888;0.00000;-38.56763;,
 97.84888;0.00000;-50.32736;,
 114.59004;0.00000;-38.47178;,
 114.52861;0.00000;-50.32736;,
 78.84799;0.00000;6.82100;,
 57.45777;5.53915;6.87169;,
 37.88800;0.00000;6.91806;,
 -60.87111;0.00000;7.15209;,
 -76.79999;0.00000;7.18984;,
 -41.30133;0.00000;7.10572;,
 -3.07199;0.00000;7.01512;,
 -19.91111;0.00000;7.05503;,
 -90.45332;0.00000;7.22219;,
 -109.56799;1.91625;7.26749;,
 17.63556;0.00000;6.96606;,
 97.84888;0.00000;6.77598;,
 114.82428;5.98830;6.73575;,
 78.84800;-2.63485;39.40969;,
 57.45778;0.00000;39.20751;,
 57.45777;0.00000;50.32736;,
 78.84799;0.00000;50.32736;,
 37.88800;0.00000;39.02255;,
 37.88800;0.00000;50.32736;,
 -76.79999;0.00000;37.93854;,
 -76.79999;0.00000;50.32736;,
 -60.87111;0.00000;50.32736;,
 -60.87111;0.00000;38.08909;,
 -41.30133;0.00000;50.32736;,
 -41.30133;-3.44326;38.27407;,
 -3.07199;2.09590;38.63540;,
 -19.91111;0.00000;38.47624;,
 -19.91111;0.00000;50.32736;,
 -3.07199;0.00000;50.32736;,
 -90.45332;0.00000;37.80949;,
 -90.45332;0.00000;50.32736;,
 -109.56798;0.00000;37.62882;,
 -109.56798;0.00000;50.32736;,
 17.63556;0.00000;50.32736;,
 17.63556;0.00000;38.83112;,
 97.84888;0.00000;50.32736;,
 97.84888;0.00000;39.58928;,
 115.05014;0.00000;50.32736;,
 114.99534;0.00000;39.75135;,
 -123.21221;0.00000;27.42044;,
 -122.93445;0.00000;15.58755;,
 -137.14580;0.00000;15.58755;,
 -137.14580;0.00000;27.42044;,
 -122.46438;0.00000;-4.43733;,
 -122.08828;0.00000;-20.45940;,
 -137.14580;0.00000;-20.57318;,
 -137.14579;0.00000;-4.43733;,
 -121.88748;0.00000;-29.01333;,
 -137.14580;0.00000;-29.01333;,
 -121.63372;0.00000;-39.82420;,
 -137.14580;0.00000;-39.91301;,
 -121.38716;0.00000;-50.32736;,
 -137.14579;0.00000;-50.32736;,
 -137.14580;0.00000;7.33284;,
 -122.73989;0.00000;7.29870;,
 -123.74993;0.00000;50.32736;,
 -123.44878;1.91626;37.49762;,
 -137.14580;0.00000;37.36816;,
 -137.14579;0.00000;50.32736;,
 126.21831;0.00000;15.58755;,
 126.02324;-2.87438;27.42044;,
 137.14580;0.00000;27.42044;,
 137.14580;0.00000;15.58755;,
 126.95349;0.00000;-29.01333;,
 126.78150;0.00000;-18.57877;,
 137.14580;0.00000;-18.50045;,
 137.14580;0.00000;-29.01333;,
 126.54839;-1.04795;-4.43733;,
 137.14579;0.00000;-4.43733;,
 127.30481;0.00000;-50.32736;,
 127.10821;0.00000;-38.40012;,
 137.14580;0.00000;-38.34265;,
 137.14579;0.00000;-50.32736;,
 126.36465;0.00000;6.70840;,
 137.14580;0.00000;6.68286;,
 125.81831;2.57499;39.85364;,
 137.14579;0.00000;39.96071;,
 125.64568;0.00000;50.32736;,
 137.14579;0.00000;50.32736;,
 -139.71756;-3.89919;-48.97391;,
 139.71756;-3.89919;-47.92719;,
 139.71756;16.10082;-47.92718;,
 -139.71756;16.10082;-48.97390;,
 139.71748;-3.89919;49.68594;,
 -139.71771;-3.89919;48.63923;,
 -139.71771;16.10082;48.63923;,
 139.71748;16.10082;49.68594;,
 -133.04127;-3.89919;51.46801;,
 -132.28064;-3.89919;-50.05646;,
 -132.28064;16.10082;-50.05646;,
 -133.04127;16.10082;51.46801;,
 136.21869;-3.89919;-50.05658;,
 135.45808;-3.89919;51.46813;,
 135.45808;16.10082;51.46813;,
 136.21869;16.10082;-50.05658;,
 0.28138;16.10082;-42.44446;,
 0.38003;16.10082;-50.05658;,
 0.38003;10.07111;-50.05658;,
 0.28138;10.37053;-42.44446;,
 0.28138;-3.89919;-42.44446;,
 0.28138;3.70386;-42.44446;,
 0.38003;3.40444;-50.05658;,
 0.38003;-3.89919;-50.05658;,
 0.11323;15.16117;-14.44445;,
 0.11323;16.10082;-14.44445;,
 0.11323;-3.89919;-14.44445;,
 0.11323;8.49451;-14.44445;,
 -0.09560;11.86761;13.42946;,
 -0.09571;16.10082;13.44480;,
 -0.09533;-3.89919;13.39391;,
 -0.09547;5.20094;13.41249;,
 -0.32874;15.16117;44.54938;,
 -0.38058;10.07111;51.46813;,
 -0.38058;16.10082;51.46813;,
 -0.32861;16.10082;44.53077;,
 -0.32907;-3.89919;44.59250;,
 -0.38058;-3.89919;51.46813;,
 -0.38058;3.40444;51.46813;,
 -0.32890;8.49451;44.56996;,
 0.00003;174.75074;5.79829;,
 0.00003;164.61909;-45.13784;,
 69.91934;164.61909;-30.21897;,
 0.00003;174.75074;5.79829;,
 98.88087;164.61909;5.79829;,
 0.00003;174.75074;5.79829;,
 69.91934;164.61909;41.81558;,
 0.00003;174.75074;5.79829;,
 0.00003;164.61909;56.73445;,
 0.00003;174.75074;5.79829;,
 -69.91918;164.61909;41.81558;,
 0.00003;174.75074;5.79829;,
 -98.88058;164.61909;5.79829;,
 0.00003;174.75074;5.79829;,
 -69.91918;164.61909;-30.21897;,
 0.00003;174.75074;5.79829;,
 0.00003;164.61909;-45.13784;,
 0.00003;135.76608;-88.31946;,
 129.19401;135.76608;-60.75303;,
 182.70807;135.76608;5.79829;,
 129.19401;135.76608;72.34945;,
 0.00003;135.76608;99.91571;,
 -129.19387;135.76608;72.34945;,
 -182.70767;135.76608;5.79829;,
 -129.19387;135.76608;-60.75303;,
 0.00003;135.76608;-88.31946;,
 0.00003;92.58436;-117.17244;,
 168.80028;92.58436;-81.15513;,
 238.71953;92.58436;5.79829;,
 168.80028;92.58436;92.75144;,
 0.00003;92.58436;128.76880;,
 -168.79978;92.58436;92.75144;,
 -238.71914;92.58436;5.79829;,
 -168.79978;92.58436;-81.15513;,
 0.00003;92.58436;-117.17244;,
 0.00003;41.64827;-127.30412;,
 182.70807;41.64827;-88.31946;,
 258.38833;41.64827;5.79829;,
 182.70807;41.64827;99.91571;,
 0.00003;41.64827;138.90060;,
 -182.70767;41.64827;99.91571;,
 -258.38736;41.64827;5.79829;,
 -182.70767;41.64827;-88.31946;,
 0.00003;41.64827;-127.30412;,
 0.00003;-9.28783;-117.17244;,
 168.80028;-9.28783;-81.15513;,
 238.71953;-9.28783;5.79829;,
 168.80028;-9.28783;92.75144;,
 0.00003;-9.28783;128.76880;,
 -168.79978;-9.28783;92.75144;,
 -238.71914;-9.28783;5.79829;,
 -168.79978;-9.28783;-81.15513;,
 0.00003;-9.28783;-117.17244;,
 0.00003;-52.46940;-88.31946;,
 129.19401;-52.46940;-60.75303;,
 182.70807;-52.46940;5.79829;,
 129.19401;-52.46940;72.34945;,
 0.00003;-52.46940;99.91571;,
 -129.19387;-52.46940;72.34945;,
 -182.70767;-52.46940;5.79829;,
 -129.19387;-52.46940;-60.75303;,
 0.00003;-52.46940;-88.31946;,
 0.00003;-81.32240;-45.13784;,
 69.91934;-81.32240;-30.21897;,
 98.88094;-81.32240;5.79829;,
 69.91934;-81.32240;41.81558;,
 0.00003;-81.32240;56.73445;,
 -69.91918;-81.32240;41.81558;,
 -98.88065;-81.32240;5.79829;,
 -69.91918;-81.32240;-30.21897;,
 0.00003;-81.32240;-45.13784;,
 0.00003;-91.45413;5.79829;,
 0.00003;-91.45413;5.79829;,
 0.00003;-91.45413;5.79829;,
 0.00003;-91.45413;5.79829;,
 0.00003;-91.45413;5.79829;,
 0.00003;-91.45413;5.79829;,
 0.00003;-91.45413;5.79829;,
 0.00003;-91.45413;5.79829;;
 
 236;
 4;0,1,2,3;,
 4;1,4,5,2;,
 4;6,7,8,9;,
 4;9,8,10,11;,
 4;12,13,14,15;,
 4;13,11,10,14;,
 4;6,16,17,7;,
 4;16,18,19,17;,
 4;12,15,20,21;,
 4;21,20,5,4;,
 4;0,3,22,23;,
 4;23,22,24,25;,
 4;26,27,28,29;,
 4;26,29,30,31;,
 4;29,28,32,33;,
 4;29,33,34,30;,
 4;35,36,37,38;,
 4;35,38,39,40;,
 4;38,37,41,42;,
 4;38,42,43,39;,
 4;44,45,46,47;,
 4;44,47,48,49;,
 4;47,46,43,42;,
 4;47,42,41,48;,
 4;35,40,50,51;,
 4;35,51,52,36;,
 4;51,50,53,54;,
 4;51,54,55,52;,
 4;44,49,56,57;,
 4;44,57,58,45;,
 4;57,56,34,33;,
 4;57,33,32,58;,
 4;26,31,59,60;,
 4;26,60,61,27;,
 4;60,59,62,63;,
 4;60,63,64,61;,
 4;65,66,67,68;,
 4;65,68,28,27;,
 4;68,67,69,70;,
 4;68,70,32,28;,
 4;71,40,39,72;,
 4;71,72,73,74;,
 4;72,39,43,75;,
 4;72,75,76,73;,
 4;77,78,79,80;,
 4;77,80,46,45;,
 4;80,79,76,75;,
 4;80,75,43,46;,
 4;71,74,81,82;,
 4;71,82,50,40;,
 4;82,81,83,84;,
 4;82,84,53,50;,
 4;77,45,58,85;,
 4;77,85,86,78;,
 4;85,58,32,70;,
 4;85,70,69,86;,
 4;65,27,61,87;,
 4;65,87,88,66;,
 4;87,61,64,89;,
 4;87,89,90,88;,
 4;91,31,30,92;,
 4;91,92,1,0;,
 4;92,30,34,93;,
 4;92,93,4,1;,
 4;94,37,36,95;,
 4;94,95,6,9;,
 4;96,41,37,94;,
 4;96,94,9,11;,
 4;97,49,48,98;,
 4;97,98,13,12;,
 4;98,48,41,96;,
 4;98,96,11,13;,
 4;95,36,52,99;,
 4;95,99,16,6;,
 4;99,52,55,100;,
 4;99,100,18,16;,
 4;101,56,49,97;,
 4;101,97,12,21;,
 4;93,34,56,101;,
 4;93,101,21,4;,
 4;102,59,31,91;,
 4;102,91,0,23;,
 4;103,62,59,102;,
 4;103,102,23,25;,
 4;104,3,2,105;,
 4;104,105,106,107;,
 4;105,2,5,108;,
 4;105,108,109,106;,
 4;110,111,112,113;,
 4;110,113,8,7;,
 4;113,112,114,115;,
 4;113,115,10,8;,
 4;116,15,14,117;,
 4;116,117,118,119;,
 4;117,14,10,115;,
 4;117,115,114,118;,
 4;110,7,17,120;,
 4;110,120,121,111;,
 4;120,17,19,122;,
 4;120,122,123,121;,
 4;116,119,124,125;,
 4;116,125,20,15;,
 4;125,124,109,108;,
 4;125,108,5,20;,
 4;104,107,126,127;,
 4;104,127,22,3;,
 4;127,126,128,129;,
 4;127,129,24,22;,
 4;130,19,18,131;,
 4;130,131,132,133;,
 4;134,55,54,135;,
 4;134,135,136,137;,
 4;135,54,53,138;,
 4;135,138,139,136;,
 4;138,53,84,140;,
 4;138,140,141,139;,
 4;140,84,83,142;,
 4;140,142,143,141;,
 4;134,137,144,145;,
 4;134,145,100,55;,
 4;145,144,132,131;,
 4;145,131,18,100;,
 4;146,123,122,147;,
 4;146,147,148,149;,
 4;147,122,19,130;,
 4;147,130,133,148;,
 4;150,25,24,151;,
 4;150,151,152,153;,
 4;154,64,63,155;,
 4;154,155,156,157;,
 4;155,63,62,158;,
 4;155,158,159,156;,
 4;160,90,89,161;,
 4;160,161,162,163;,
 4;161,89,64,154;,
 4;161,154,157,162;,
 4;158,62,103,164;,
 4;158,164,165,159;,
 4;164,103,25,150;,
 4;164,150,153,165;,
 4;151,24,129,166;,
 4;151,166,167,152;,
 4;166,129,128,168;,
 4;166,168,169,167;,
 4;170,171,172,173;,
 4;174,175,176,177;,
 4;178,179,180,181;,
 4;182,183,184,185;,
 4;186,187,188,189;,
 4;190,191,192,193;,
 4;191,189,188,192;,
 4;194,195,186,189;,
 4;196,197,191,190;,
 4;198,199,195,194;,
 4;200,201,197,196;,
 4;202,203,204,205;,
 4;202,205,199,198;,
 4;206,207,208,209;,
 4;206,209,201,200;,
 4;209,208,203,202;,
 4;189,188,187,186;,
 4;193,192,191,190;,
 4;192,188,189,191;,
 4;189,186,195,194;,
 4;190,191,197,196;,
 4;194,195,199,198;,
 4;196,197,201,200;,
 4;205,204,203,202;,
 4;198,199,205,202;,
 4;209,208,207,206;,
 4;200,201,209,206;,
 4;202,203,208,209;,
 3;210,211,212;,
 3;213,212,214;,
 3;215,214,216;,
 3;217,216,218;,
 3;219,218,220;,
 3;221,220,222;,
 3;223,222,224;,
 3;225,224,226;,
 4;211,227,228,212;,
 4;212,228,229,214;,
 4;214,229,230,216;,
 4;216,230,231,218;,
 4;218,231,232,220;,
 4;220,232,233,222;,
 4;222,233,234,224;,
 4;224,234,235,226;,
 4;227,236,237,228;,
 4;228,237,238,229;,
 4;229,238,239,230;,
 4;230,239,240,231;,
 4;231,240,241,232;,
 4;232,241,242,233;,
 4;233,242,243,234;,
 4;234,243,244,235;,
 4;236,245,246,237;,
 4;237,246,247,238;,
 4;238,247,248,239;,
 4;239,248,249,240;,
 4;240,249,250,241;,
 4;241,250,251,242;,
 4;242,251,252,243;,
 4;243,252,253,244;,
 4;245,254,255,246;,
 4;246,255,256,247;,
 4;247,256,257,248;,
 4;248,257,258,249;,
 4;249,258,259,250;,
 4;250,259,260,251;,
 4;251,260,261,252;,
 4;252,261,262,253;,
 4;254,263,264,255;,
 4;255,264,265,256;,
 4;256,265,266,257;,
 4;257,266,267,258;,
 4;258,267,268,259;,
 4;259,268,269,260;,
 4;260,269,270,261;,
 4;261,270,271,262;,
 4;263,272,273,264;,
 4;264,273,274,265;,
 4;265,274,275,266;,
 4;266,275,276,267;,
 4;267,276,277,268;,
 4;268,277,278,269;,
 4;269,278,279,270;,
 4;270,279,280,271;,
 3;272,281,273;,
 3;273,282,274;,
 3;274,283,275;,
 3;275,284,276;,
 3;276,285,277;,
 3;277,286,278;,
 3;278,287,279;,
 3;279,288,280;;
 
 MeshMaterialList {
  2;
  236;
  0,
  0,
  0,
  0,
  0,
  0,
  0,
  0,
  0,
  0,
  0,
  0,
  0,
  0,
  0,
  0,
  0,
  0,
  0,
  0,
  0,
  0,
  0,
  0,
  0,
  0,
  0,
  0,
  0,
  0,
  0,
  0,
  0,
  0,
  0,
  0,
  0,
  0,
  0,
  0,
  0,
  0,
  0,
  0,
  0,
  0,
  0,
  0,
  0,
  0,
  0,
  0,
  0,
  0,
  0,
  0,
  0,
  0,
  0,
  0,
  0,
  0,
  0,
  0,
  0,
  0,
  0,
  0,
  0,
  0,
  0,
  0,
  0,
  0,
  0,
  0,
  0,
  0,
  0,
  0,
  0,
  0,
  0,
  0,
  0,
  0,
  0,
  0,
  0,
  0,
  0,
  0,
  0,
  0,
  0,
  0,
  0,
  0,
  0,
  0,
  0,
  0,
  0,
  0,
  0,
  0,
  0,
  0,
  0,
  0,
  0,
  0,
  0,
  0,
  0,
  0,
  0,
  0,
  0,
  0,
  0,
  0,
  0,
  0,
  0,
  0,
  0,
  0,
  0,
  0,
  0,
  0,
  0,
  0,
  0,
  0,
  0,
  0,
  0,
  0,
  0,
  0,
  0,
  0,
  0,
  0,
  0,
  0,
  0,
  0,
  0,
  0,
  0,
  0,
  0,
  0,
  0,
  0,
  0,
  0,
  0,
  0,
  0,
  0,
  0,
  0,
  0,
  0,
  0,
  0,
  0,
  0,
  1,
  1,
  1,
  1,
  1,
  1,
  1,
  1,
  1,
  1,
  1,
  1,
  1,
  1,
  1,
  1,
  1,
  1,
  1,
  1,
  1,
  1,
  1,
  1,
  1,
  1,
  1,
  1,
  1,
  1,
  1,
  1,
  1,
  1,
  1,
  1,
  1,
  1,
  1,
  1,
  1,
  1,
  1,
  1,
  1,
  1,
  1,
  1,
  1,
  1,
  1,
  1,
  1,
  1,
  1,
  1,
  1,
  1,
  1,
  1,
  1,
  1,
  1,
  1;;
  Material {
   0.800000;0.800000;0.800000;1.000000;;
   5.000000;
   0.000000;0.000000;0.000000;;
   0.000000;0.000000;0.000000;;
   TextureFilename {
    "stage.png";
   }
  }
  Material {
   0.800000;0.800000;0.800000;1.000000;;
   5.000000;
   0.000000;0.000000;0.000000;;
   0.000000;0.000000;0.000000;;
   TextureFilename {
    "sora.jpg";
   }
  }
 }
 MeshTextureCoords {
  289;
  0.787460;0.345140;,
  0.709480;0.345140;,
  0.709480;0.227580;,
  0.787460;0.227580;,
  0.638130;0.345140;,
  0.638130;0.227580;,
  0.220010;0.345140;,
  0.220010;0.227580;,
  0.278080;0.227580;,
  0.278080;0.345140;,
  0.349430;0.227580;,
  0.349430;0.345140;,
  0.488800;0.345140;,
  0.427410;0.345140;,
  0.427410;0.227580;,
  0.488800;0.227580;,
  0.170230;0.345140;,
  0.170230;0.227580;,
  0.100540;0.345140;,
  0.100540;0.227580;,
  0.564290;0.227580;,
  0.564290;0.345140;,
  0.856730;0.227580;,
  0.856730;0.345140;,
  0.919010;0.227580;,
  0.918790;0.345140;,
  0.787460;0.688180;,
  0.787460;0.788250;,
  0.709480;0.788250;,
  0.709480;0.689780;,
  0.709480;0.544080;,
  0.787460;0.544080;,
  0.638130;0.788250;,
  0.638130;0.691250;,
  0.638130;0.544080;,
  0.220010;0.699860;,
  0.220010;0.544080;,
  0.278080;0.544080;,
  0.278080;0.698670;,
  0.278080;0.788250;,
  0.220010;0.788250;,
  0.349430;0.544080;,
  0.349430;0.697200;,
  0.349430;0.788250;,
  0.488800;0.694330;,
  0.488800;0.788250;,
  0.427410;0.788250;,
  0.427410;0.695590;,
  0.427410;0.544080;,
  0.488800;0.544080;,
  0.170230;0.788250;,
  0.170230;0.700890;,
  0.170230;0.544080;,
  0.100540;0.788250;,
  0.100540;0.702320;,
  0.100540;0.544080;,
  0.564290;0.544080;,
  0.564290;0.692770;,
  0.564290;0.788250;,
  0.856730;0.544080;,
  0.856730;0.686750;,
  0.856730;0.788250;,
  0.918410;0.544080;,
  0.918140;0.685490;,
  0.917950;0.788250;,
  0.787460;0.884250;,
  0.787460;1.000000;,
  0.709480;1.000000;,
  0.709480;0.885470;,
  0.638130;1.000000;,
  0.638130;0.886580;,
  0.220010;0.893100;,
  0.278080;0.892200;,
  0.278080;1.000000;,
  0.220010;1.000000;,
  0.349430;0.891080;,
  0.349430;1.000000;,
  0.488800;0.888910;,
  0.488800;1.000000;,
  0.427410;1.000000;,
  0.427410;0.889870;,
  0.170230;1.000000;,
  0.170230;0.893880;,
  0.100540;1.000000;,
  0.100540;0.894970;,
  0.564290;0.887730;,
  0.564290;1.000000;,
  0.856730;0.883170;,
  0.856730;1.000000;,
  0.917770;0.882220;,
  0.917540;1.000000;,
  0.787460;0.432230;,
  0.709480;0.431730;,
  0.638130;0.431270;,
  0.278080;0.428940;,
  0.220010;0.428570;,
  0.349430;0.429410;,
  0.488800;0.430310;,
  0.427410;0.429910;,
  0.170230;0.428250;,
  0.100540;0.427800;,
  0.564290;0.430790;,
  0.856730;0.432680;,
  0.918620;0.433080;,
  0.787460;0.108470;,
  0.709480;0.110480;,
  0.709480;0.000000;,
  0.787460;0.000000;,
  0.638130;0.112310;,
  0.638130;0.000000;,
  0.220010;0.123080;,
  0.220010;0.000000;,
  0.278080;0.000000;,
  0.278080;0.121590;,
  0.349430;0.000000;,
  0.349430;0.119750;,
  0.488800;0.116160;,
  0.427410;0.117740;,
  0.427410;0.000000;,
  0.488800;0.000000;,
  0.170230;0.124360;,
  0.170230;0.000000;,
  0.100540;0.126160;,
  0.100540;0.000000;,
  0.564290;0.000000;,
  0.564290;0.114210;,
  0.856730;0.000000;,
  0.856730;0.106680;,
  0.919440;0.000000;,
  0.919240;0.105070;,
  0.050800;0.227580;,
  0.051810;0.345140;,
  0.000000;0.345140;,
  0.000000;0.227580;,
  0.053520;0.544080;,
  0.054900;0.703260;,
  0.000000;0.704390;,
  0.000000;0.544080;,
  0.055630;0.788250;,
  0.000000;0.788250;,
  0.056550;0.895650;,
  0.000000;0.896530;,
  0.057450;1.000000;,
  0.000000;1.000000;,
  0.000000;0.427150;,
  0.052520;0.427490;,
  0.048840;0.000000;,
  0.049940;0.127460;,
  0.000000;0.128750;,
  0.000000;0.000000;,
  0.960160;0.345140;,
  0.959450;0.227580;,
  1.000000;0.227580;,
  1.000000;0.345140;,
  0.962840;0.788250;,
  0.962210;0.684580;,
  1.000000;0.683800;,
  1.000000;0.788250;,
  0.961360;0.544080;,
  1.000000;0.544080;,
  0.964120;1.000000;,
  0.963410;0.881500;,
  1.000000;0.880930;,
  1.000000;1.000000;,
  0.960690;0.433350;,
  1.000000;0.433610;,
  0.958700;0.104060;,
  1.000000;0.102990;,
  0.958070;0.000000;,
  1.000000;0.000000;,
  0.000000;0.000000;,
  1.000000;0.000000;,
  1.000000;1.000000;,
  0.000000;1.000000;,
  0.000000;0.000000;,
  1.000000;0.000000;,
  1.000000;1.000000;,
  0.000000;1.000000;,
  0.000000;0.000000;,
  1.000000;0.000000;,
  1.000000;1.000000;,
  0.000000;1.000000;,
  0.000000;0.000000;,
  1.000000;0.000000;,
  1.000000;1.000000;,
  0.000000;1.000000;,
  0.129699;1.000000;,
  0.000000;1.000000;,
  0.000000;0.698514;,
  0.129699;0.698514;,
  0.129699;0.000000;,
  0.129699;0.365181;,
  0.000000;0.365181;,
  0.000000;0.000000;,
  0.350773;0.698515;,
  0.350773;1.000000;,
  0.350773;0.000000;,
  0.350773;0.365181;,
  0.625326;0.698515;,
  0.625477;1.000000;,
  0.624976;0.000000;,
  0.625159;0.365181;,
  0.931852;0.698515;,
  1.000000;0.698515;,
  1.000000;1.000000;,
  0.931668;1.000000;,
  0.932276;0.000000;,
  1.000000;0.000000;,
  1.000000;0.365182;,
  0.932054;0.365182;,
  0.062500;0.000000;,
  0.000000;0.125000;,
  0.125000;0.125000;,
  0.187500;0.000000;,
  0.250000;0.125000;,
  0.312500;0.000000;,
  0.375000;0.125000;,
  0.437500;0.000000;,
  0.500000;0.125000;,
  0.562500;0.000000;,
  0.625000;0.125000;,
  0.687500;0.000000;,
  0.750000;0.125000;,
  0.812500;0.000000;,
  0.875000;0.125000;,
  0.937500;0.000000;,
  1.000000;0.125000;,
  0.000000;0.250000;,
  0.125000;0.250000;,
  0.250000;0.250000;,
  0.375000;0.250000;,
  0.500000;0.250000;,
  0.625000;0.250000;,
  0.750000;0.250000;,
  0.875000;0.250000;,
  1.000000;0.250000;,
  0.000000;0.375000;,
  0.125000;0.375000;,
  0.250000;0.375000;,
  0.375000;0.375000;,
  0.500000;0.375000;,
  0.625000;0.375000;,
  0.750000;0.375000;,
  0.875000;0.375000;,
  1.000000;0.375000;,
  0.000000;0.500000;,
  0.125000;0.500000;,
  0.250000;0.500000;,
  0.375000;0.500000;,
  0.500000;0.500000;,
  0.625000;0.500000;,
  0.750000;0.500000;,
  0.875000;0.500000;,
  1.000000;0.500000;,
  0.000000;0.625000;,
  0.125000;0.625000;,
  0.250000;0.625000;,
  0.375000;0.625000;,
  0.500000;0.625000;,
  0.625000;0.625000;,
  0.750000;0.625000;,
  0.875000;0.625000;,
  1.000000;0.625000;,
  0.000000;0.750000;,
  0.125000;0.750000;,
  0.250000;0.750000;,
  0.375000;0.750000;,
  0.500000;0.750000;,
  0.625000;0.750000;,
  0.750000;0.750000;,
  0.875000;0.750000;,
  1.000000;0.750000;,
  0.000000;0.875000;,
  0.125000;0.875000;,
  0.250000;0.875000;,
  0.375000;0.875000;,
  0.500000;0.875000;,
  0.625000;0.875000;,
  0.750000;0.875000;,
  0.875000;0.875000;,
  1.000000;0.875000;,
  0.062500;1.000000;,
  0.187500;1.000000;,
  0.312500;1.000000;,
  0.437500;1.000000;,
  0.562500;1.000000;,
  0.687500;1.000000;,
  0.812500;1.000000;,
  0.937500;1.000000;;
 }
 MeshVertexColors {
  289;
  0;1.000000;1.000000;1.000000;1.000000;,
  1;1.000000;1.000000;1.000000;1.000000;,
  2;1.000000;1.000000;1.000000;1.000000;,
  3;1.000000;1.000000;1.000000;1.000000;,
  4;1.000000;1.000000;1.000000;1.000000;,
  5;1.000000;1.000000;1.000000;1.000000;,
  6;1.000000;1.000000;1.000000;1.000000;,
  7;1.000000;1.000000;1.000000;1.000000;,
  8;1.000000;1.000000;1.000000;1.000000;,
  9;1.000000;1.000000;1.000000;1.000000;,
  10;1.000000;1.000000;1.000000;1.000000;,
  11;1.000000;1.000000;1.000000;1.000000;,
  12;1.000000;1.000000;1.000000;1.000000;,
  13;1.000000;1.000000;1.000000;1.000000;,
  14;1.000000;1.000000;1.000000;1.000000;,
  15;1.000000;1.000000;1.000000;1.000000;,
  16;1.000000;1.000000;1.000000;1.000000;,
  17;1.000000;1.000000;1.000000;1.000000;,
  18;1.000000;1.000000;1.000000;1.000000;,
  19;1.000000;1.000000;1.000000;1.000000;,
  20;1.000000;1.000000;1.000000;1.000000;,
  21;1.000000;1.000000;1.000000;1.000000;,
  22;1.000000;1.000000;1.000000;1.000000;,
  23;1.000000;1.000000;1.000000;1.000000;,
  24;1.000000;1.000000;1.000000;1.000000;,
  25;1.000000;1.000000;1.000000;1.000000;,
  26;1.000000;1.000000;1.000000;1.000000;,
  27;1.000000;1.000000;1.000000;1.000000;,
  28;1.000000;1.000000;1.000000;1.000000;,
  29;1.000000;1.000000;1.000000;1.000000;,
  30;1.000000;1.000000;1.000000;1.000000;,
  31;1.000000;1.000000;1.000000;1.000000;,
  32;1.000000;1.000000;1.000000;1.000000;,
  33;1.000000;1.000000;1.000000;1.000000;,
  34;1.000000;1.000000;1.000000;1.000000;,
  35;1.000000;1.000000;1.000000;1.000000;,
  36;1.000000;1.000000;1.000000;1.000000;,
  37;1.000000;1.000000;1.000000;1.000000;,
  38;1.000000;1.000000;1.000000;1.000000;,
  39;1.000000;1.000000;1.000000;1.000000;,
  40;1.000000;1.000000;1.000000;1.000000;,
  41;1.000000;1.000000;1.000000;1.000000;,
  42;1.000000;1.000000;1.000000;1.000000;,
  43;1.000000;1.000000;1.000000;1.000000;,
  44;1.000000;1.000000;1.000000;1.000000;,
  45;1.000000;1.000000;1.000000;1.000000;,
  46;1.000000;1.000000;1.000000;1.000000;,
  47;1.000000;1.000000;1.000000;1.000000;,
  48;1.000000;1.000000;1.000000;1.000000;,
  49;1.000000;1.000000;1.000000;1.000000;,
  50;1.000000;1.000000;1.000000;1.000000;,
  51;1.000000;1.000000;1.000000;1.000000;,
  52;1.000000;1.000000;1.000000;1.000000;,
  53;1.000000;1.000000;1.000000;1.000000;,
  54;1.000000;1.000000;1.000000;1.000000;,
  55;1.000000;1.000000;1.000000;1.000000;,
  56;1.000000;1.000000;1.000000;1.000000;,
  57;1.000000;1.000000;1.000000;1.000000;,
  58;1.000000;1.000000;1.000000;1.000000;,
  59;1.000000;1.000000;1.000000;1.000000;,
  60;1.000000;1.000000;1.000000;1.000000;,
  61;1.000000;1.000000;1.000000;1.000000;,
  62;1.000000;1.000000;1.000000;1.000000;,
  63;1.000000;1.000000;1.000000;1.000000;,
  64;1.000000;1.000000;1.000000;1.000000;,
  65;1.000000;1.000000;1.000000;1.000000;,
  66;1.000000;1.000000;1.000000;1.000000;,
  67;1.000000;1.000000;1.000000;1.000000;,
  68;1.000000;1.000000;1.000000;1.000000;,
  69;1.000000;1.000000;1.000000;1.000000;,
  70;1.000000;1.000000;1.000000;1.000000;,
  71;1.000000;1.000000;1.000000;1.000000;,
  72;1.000000;1.000000;1.000000;1.000000;,
  73;1.000000;1.000000;1.000000;1.000000;,
  74;1.000000;1.000000;1.000000;1.000000;,
  75;1.000000;1.000000;1.000000;1.000000;,
  76;1.000000;1.000000;1.000000;1.000000;,
  77;1.000000;1.000000;1.000000;1.000000;,
  78;1.000000;1.000000;1.000000;1.000000;,
  79;1.000000;1.000000;1.000000;1.000000;,
  80;1.000000;1.000000;1.000000;1.000000;,
  81;1.000000;1.000000;1.000000;1.000000;,
  82;1.000000;1.000000;1.000000;1.000000;,
  83;1.000000;1.000000;1.000000;1.000000;,
  84;1.000000;1.000000;1.000000;1.000000;,
  85;1.000000;1.000000;1.000000;1.000000;,
  86;1.000000;1.000000;1.000000;1.000000;,
  87;1.000000;1.000000;1.000000;1.000000;,
  88;1.000000;1.000000;1.000000;1.000000;,
  89;1.000000;1.000000;1.000000;1.000000;,
  90;1.000000;1.000000;1.000000;1.000000;,
  91;1.000000;1.000000;1.000000;1.000000;,
  92;1.000000;1.000000;1.000000;1.000000;,
  93;1.000000;1.000000;1.000000;1.000000;,
  94;1.000000;1.000000;1.000000;1.000000;,
  95;1.000000;1.000000;1.000000;1.000000;,
  96;1.000000;1.000000;1.000000;1.000000;,
  97;1.000000;1.000000;1.000000;1.000000;,
  98;1.000000;1.000000;1.000000;1.000000;,
  99;1.000000;1.000000;1.000000;1.000000;,
  100;1.000000;1.000000;1.000000;1.000000;,
  101;1.000000;1.000000;1.000000;1.000000;,
  102;1.000000;1.000000;1.000000;1.000000;,
  103;1.000000;1.000000;1.000000;1.000000;,
  104;1.000000;1.000000;1.000000;1.000000;,
  105;1.000000;1.000000;1.000000;1.000000;,
  106;1.000000;1.000000;1.000000;1.000000;,
  107;1.000000;1.000000;1.000000;1.000000;,
  108;1.000000;1.000000;1.000000;1.000000;,
  109;1.000000;1.000000;1.000000;1.000000;,
  110;1.000000;1.000000;1.000000;1.000000;,
  111;1.000000;1.000000;1.000000;1.000000;,
  112;1.000000;1.000000;1.000000;1.000000;,
  113;1.000000;1.000000;1.000000;1.000000;,
  114;1.000000;1.000000;1.000000;1.000000;,
  115;1.000000;1.000000;1.000000;1.000000;,
  116;1.000000;1.000000;1.000000;1.000000;,
  117;1.000000;1.000000;1.000000;1.000000;,
  118;1.000000;1.000000;1.000000;1.000000;,
  119;1.000000;1.000000;1.000000;1.000000;,
  120;1.000000;1.000000;1.000000;1.000000;,
  121;1.000000;1.000000;1.000000;1.000000;,
  122;1.000000;1.000000;1.000000;1.000000;,
  123;1.000000;1.000000;1.000000;1.000000;,
  124;1.000000;1.000000;1.000000;1.000000;,
  125;1.000000;1.000000;1.000000;1.000000;,
  126;1.000000;1.000000;1.000000;1.000000;,
  127;1.000000;1.000000;1.000000;1.000000;,
  128;1.000000;1.000000;1.000000;1.000000;,
  129;1.000000;1.000000;1.000000;1.000000;,
  130;1.000000;1.000000;1.000000;1.000000;,
  131;1.000000;1.000000;1.000000;1.000000;,
  132;1.000000;1.000000;1.000000;1.000000;,
  133;1.000000;1.000000;1.000000;1.000000;,
  134;1.000000;1.000000;1.000000;1.000000;,
  135;1.000000;1.000000;1.000000;1.000000;,
  136;1.000000;1.000000;1.000000;1.000000;,
  137;1.000000;1.000000;1.000000;1.000000;,
  138;1.000000;1.000000;1.000000;1.000000;,
  139;1.000000;1.000000;1.000000;1.000000;,
  140;1.000000;1.000000;1.000000;1.000000;,
  141;1.000000;1.000000;1.000000;1.000000;,
  142;1.000000;1.000000;1.000000;1.000000;,
  143;1.000000;1.000000;1.000000;1.000000;,
  144;1.000000;1.000000;1.000000;1.000000;,
  145;1.000000;1.000000;1.000000;1.000000;,
  146;1.000000;1.000000;1.000000;1.000000;,
  147;1.000000;1.000000;1.000000;1.000000;,
  148;1.000000;1.000000;1.000000;1.000000;,
  149;1.000000;1.000000;1.000000;1.000000;,
  150;1.000000;1.000000;1.000000;1.000000;,
  151;1.000000;1.000000;1.000000;1.000000;,
  152;1.000000;1.000000;1.000000;1.000000;,
  153;1.000000;1.000000;1.000000;1.000000;,
  154;1.000000;1.000000;1.000000;1.000000;,
  155;1.000000;1.000000;1.000000;1.000000;,
  156;1.000000;1.000000;1.000000;1.000000;,
  157;1.000000;1.000000;1.000000;1.000000;,
  158;1.000000;1.000000;1.000000;1.000000;,
  159;1.000000;1.000000;1.000000;1.000000;,
  160;1.000000;1.000000;1.000000;1.000000;,
  161;1.000000;1.000000;1.000000;1.000000;,
  162;1.000000;1.000000;1.000000;1.000000;,
  163;1.000000;1.000000;1.000000;1.000000;,
  164;1.000000;1.000000;1.000000;1.000000;,
  165;1.000000;1.000000;1.000000;1.000000;,
  166;1.000000;1.000000;1.000000;1.000000;,
  167;1.000000;1.000000;1.000000;1.000000;,
  168;1.000000;1.000000;1.000000;1.000000;,
  169;1.000000;1.000000;1.000000;1.000000;,
  170;1.000000;1.000000;1.000000;1.000000;,
  171;1.000000;1.000000;1.000000;1.000000;,
  172;1.000000;1.000000;1.000000;1.000000;,
  173;1.000000;1.000000;1.000000;1.000000;,
  174;1.000000;1.000000;1.000000;1.000000;,
  175;1.000000;1.000000;1.000000;1.000000;,
  176;1.000000;1.000000;1.000000;1.000000;,
  177;1.000000;1.000000;1.000000;1.000000;,
  178;1.000000;1.000000;1.000000;1.000000;,
  179;1.000000;1.000000;1.000000;1.000000;,
  180;1.000000;1.000000;1.000000;1.000000;,
  181;1.000000;1.000000;1.000000;1.000000;,
  182;1.000000;1.000000;1.000000;1.000000;,
  183;1.000000;1.000000;1.000000;1.000000;,
  184;1.000000;1.000000;1.000000;1.000000;,
  185;1.000000;1.000000;1.000000;1.000000;,
  186;1.000000;1.000000;1.000000;1.000000;,
  187;1.000000;1.000000;1.000000;1.000000;,
  188;1.000000;1.000000;1.000000;1.000000;,
  189;1.000000;1.000000;1.000000;1.000000;,
  190;1.000000;1.000000;1.000000;1.000000;,
  191;1.000000;1.000000;1.000000;1.000000;,
  192;1.000000;1.000000;1.000000;1.000000;,
  193;1.000000;1.000000;1.000000;1.000000;,
  194;1.000000;1.000000;1.000000;1.000000;,
  195;1.000000;1.000000;1.000000;1.000000;,
  196;1.000000;1.000000;1.000000;1.000000;,
  197;1.000000;1.000000;1.000000;1.000000;,
  198;1.000000;1.000000;1.000000;1.000000;,
  199;1.000000;1.000000;1.000000;1.000000;,
  200;1.000000;1.000000;1.000000;1.000000;,
  201;1.000000;1.000000;1.000000;1.000000;,
  202;1.000000;1.000000;1.000000;1.000000;,
  203;1.000000;1.000000;1.000000;1.000000;,
  204;1.000000;1.000000;1.000000;1.000000;,
  205;1.000000;1.000000;1.000000;1.000000;,
  206;1.000000;1.000000;1.000000;1.000000;,
  207;1.000000;1.000000;1.000000;1.000000;,
  208;1.000000;1.000000;1.000000;1.000000;,
  209;1.000000;1.000000;1.000000;1.000000;,
  210;1.000000;1.000000;1.000000;1.000000;,
  211;1.000000;1.000000;1.000000;1.000000;,
  212;1.000000;1.000000;1.000000;1.000000;,
  213;1.000000;1.000000;1.000000;1.000000;,
  214;1.000000;1.000000;1.000000;1.000000;,
  215;1.000000;1.000000;1.000000;1.000000;,
  216;1.000000;1.000000;1.000000;1.000000;,
  217;1.000000;1.000000;1.000000;1.000000;,
  218;1.000000;1.000000;1.000000;1.000000;,
  219;1.000000;1.000000;1.000000;1.000000;,
  220;1.000000;1.000000;1.000000;1.000000;,
  221;1.000000;1.000000;1.000000;1.000000;,
  222;1.000000;1.000000;1.000000;1.000000;,
  223;1.000000;1.000000;1.000000;1.000000;,
  224;1.000000;1.000000;1.000000;1.000000;,
  225;1.000000;1.000000;1.000000;1.000000;,
  226;1.000000;1.000000;1.000000;1.000000;,
  227;1.000000;1.000000;1.000000;1.000000;,
  228;1.000000;1.000000;1.000000;1.000000;,
  229;1.000000;1.000000;1.000000;1.000000;,
  230;1.000000;1.000000;1.000000;1.000000;,
  231;1.000000;1.000000;1.000000;1.000000;,
  232;1.000000;1.000000;1.000000;1.000000;,
  233;1.000000;1.000000;1.000000;1.000000;,
  234;1.000000;1.000000;1.000000;1.000000;,
  235;1.000000;1.000000;1.000000;1.000000;,
  236;1.000000;1.000000;1.000000;1.000000;,
  237;1.000000;1.000000;1.000000;1.000000;,
  238;1.000000;1.000000;1.000000;1.000000;,
  239;1.000000;1.000000;1.000000;1.000000;,
  240;1.000000;1.000000;1.000000;1.000000;,
  241;1.000000;1.000000;1.000000;1.000000;,
  242;1.000000;1.000000;1.000000;1.000000;,
  243;1.000000;1.000000;1.000000;1.000000;,
  244;1.000000;1.000000;1.000000;1.000000;,
  245;1.000000;1.000000;1.000000;1.000000;,
  246;1.000000;1.000000;1.000000;1.000000;,
  247;1.000000;1.000000;1.000000;1.000000;,
  248;1.000000;1.000000;1.000000;1.000000;,
  249;1.000000;1.000000;1.000000;1.000000;,
  250;1.000000;1.000000;1.000000;1.000000;,
  251;1.000000;1.000000;1.000000;1.000000;,
  252;1.000000;1.000000;1.000000;1.000000;,
  253;1.000000;1.000000;1.000000;1.000000;,
  254;1.000000;1.000000;1.000000;1.000000;,
  255;1.000000;1.000000;1.000000;1.000000;,
  256;1.000000;1.000000;1.000000;1.000000;,
  257;1.000000;1.000000;1.000000;1.000000;,
  258;1.000000;1.000000;1.000000;1.000000;,
  259;1.000000;1.000000;1.000000;1.000000;,
  260;1.000000;1.000000;1.000000;1.000000;,
  261;1.000000;1.000000;1.000000;1.000000;,
  262;1.000000;1.000000;1.000000;1.000000;,
  263;1.000000;1.000000;1.000000;1.000000;,
  264;1.000000;1.000000;1.000000;1.000000;,
  265;1.000000;1.000000;1.000000;1.000000;,
  266;1.000000;1.000000;1.000000;1.000000;,
  267;1.000000;1.000000;1.000000;1.000000;,
  268;1.000000;1.000000;1.000000;1.000000;,
  269;1.000000;1.000000;1.000000;1.000000;,
  270;1.000000;1.000000;1.000000;1.000000;,
  271;1.000000;1.000000;1.000000;1.000000;,
  272;1.000000;1.000000;1.000000;1.000000;,
  273;1.000000;1.000000;1.000000;1.000000;,
  274;1.000000;1.000000;1.000000;1.000000;,
  275;1.000000;1.000000;1.000000;1.000000;,
  276;1.000000;1.000000;1.000000;1.000000;,
  277;1.000000;1.000000;1.000000;1.000000;,
  278;1.000000;1.000000;1.000000;1.000000;,
  279;1.000000;1.000000;1.000000;1.000000;,
  280;1.000000;1.000000;1.000000;1.000000;,
  281;1.000000;1.000000;1.000000;1.000000;,
  282;1.000000;1.000000;1.000000;1.000000;,
  283;1.000000;1.000000;1.000000;1.000000;,
  284;1.000000;1.000000;1.000000;1.000000;,
  285;1.000000;1.000000;1.000000;1.000000;,
  286;1.000000;1.000000;1.000000;1.000000;,
  287;1.000000;1.000000;1.000000;1.000000;,
  288;1.000000;1.000000;1.000000;1.000000;;
 }
}
